N14	N15	N16	N17	N18	N19	N20	N21	N22	N23	N27	N28	N29	N30	N31	P14	P15	P16	P17	P18	P19	P20	P21	P22	P23	P27	P28	P29	P30	P31
SamClass	-1	-2	-3	-4	-5	-6	-7	-8	-9	-10	-11	-12	-13	-14	-15	1	2	3	4	5	6	7	8	9	10	11	12	13	14	15
TwilightClass	1	1	1	1	1	1	1	1	1	1	1	1	1	1	1	2	2	2	2	2	2	2	2	2	2	2	2	2	2	2
